
{"content":[{
  "name": "Service 1",
   "description": "Lorem ipsum dolor sit amet, consectetur adipiscing elit. Suspendisse posuere ipsum odio, sed maximus dui lobortis sit amet.",
  "textContent": "To each text are associated 3 files : - raw text in Arabic, - vowelized text in Arabic, - one XML file containing the morphological annotation of the text. Each text word associates a certain number of information, such as word size, rank of the word in the text, paragraph number where the word was found, etc. Each word associates a node in the XML file. Each node contains the following positional features of the word in the text: - Paragraph number in the text, i.e. paragraph where the word can be found, - Sentence number in the paragraph, - Sentence number in the text, - Rank of the word in the text, - Rank of the first character of the word in the text, - Word size. Information about word annotation are added as « sub-nodes »: - Word of non vowelised text, - Vowelised word, - Word lemma, - Grammatical category of the word.",
  "creationDate": 1708706061682,
  "languages": [1, 2],
  "categories": [1,2],
  "type": "service",
  "contracts": [1],
  "user": 1,
  "contents": [
    {
      "id": 1,
      "extension": "pdf",
      "name": "File test"
    }
  ]
},
{
  "name": "Service 2",
   "description": "Lorem ipsum dolor sit amet, consectetur adipiscing elit. Suspendisse posuere ipsum odio, sed maximus dui lobortis sit amet.",
  "textContent": "To each text are associated 3 files : - raw text in Arabic, - vowelized text in Arabic, - one XML file containing the morphological annotation of the text. Each text word associates a certain number of information, such as word size, rank of the word in the text, paragraph number where the word was found, etc. Each word associates a node in the XML file. Each node contains the following positional features of the word in the text: - Paragraph number in the text, i.e. paragraph where the word can be found, - Sentence number in the paragraph, - Sentence number in the text, - Rank of the word in the text, - Rank of the first character of the word in the text, - Word size. Information about word annotation are added as « sub-nodes »: - Word of non vowelised text, - Vowelised word, - Word lemma, - Grammatical category of the word.",
  "creationDate": 1708706061682,
  "languages": [1],
  "categories": [2],
  "type": "service",
  "contracts": [1],
  "user": 1,
  "contents": [
    {
      "id": 1,
      "extension": "pdf",
      "name": "File test"
    }
  ]
},
{
  "name": "Service 3",
   "description": "Lorem ipsum dolor sit amet, consectetur adipiscing elit. Suspendisse posuere ipsum odio, sed maximus dui lobortis sit amet.",
  "textContent": "To each text are associated 3 files : - raw text in Arabic, - vowelized text in Arabic, - one XML file containing the morphological annotation of the text. Each text word associates a certain number of information, such as word size, rank of the word in the text, paragraph number where the word was found, etc. Each word associates a node in the XML file. Each node contains the following positional features of the word in the text: - Paragraph number in the text, i.e. paragraph where the word can be found, - Sentence number in the paragraph, - Sentence number in the text, - Rank of the word in the text, - Rank of the first character of the word in the text, - Word size. Information about word annotation are added as « sub-nodes »: - Word of non vowelised text, - Vowelised word, - Word lemma, - Grammatical category of the word.",
  "creationDate": 1708706061682,
  "languages": [1],
  "categories": [1],
  "type": "service",
  "contracts": [1],
  "user": 1,
  "contents": [
    {
      "id": 1,
      "extension": "pdf",
      "name": "File test"
    }
  ]
},
{
  "name": "Service 4",
   "description": "Lorem ipsum dolor sit amet, consectetur adipiscing elit. Suspendisse posuere ipsum odio, sed maximus dui lobortis sit amet.",
  "textContent": "To each text are associated 3 files : - raw text in Arabic, - vowelized text in Arabic, - one XML file containing the morphological annotation of the text. Each text word associates a certain number of information, such as word size, rank of the word in the text, paragraph number where the word was found, etc. Each word associates a node in the XML file. Each node contains the following positional features of the word in the text: - Paragraph number in the text, i.e. paragraph where the word can be found, - Sentence number in the paragraph, - Sentence number in the text, - Rank of the word in the text, - Rank of the first character of the word in the text, - Word size. Information about word annotation are added as « sub-nodes »: - Word of non vowelised text, - Vowelised word, - Word lemma, - Grammatical category of the word.",
  "creationDate": 1708706061682,
  "languages": [1],
  "categories": [1,2],
  "type": "service",
  "contracts": [1],
  "user": 1,
  "contents": [
    {
      "id": 1,
      "extension": "pdf",
      "name": "File test"
    }
  ]
},
{
  "name": "Service 5",
   "description": "Lorem ipsum dolor sit amet, consectetur adipiscing elit. Suspendisse posuere ipsum odio, sed maximus dui lobortis sit amet.",
  "textContent": "To each text are associated 3 files : - raw text in Arabic, - vowelized text in Arabic, - one XML file containing the morphological annotation of the text. Each text word associates a certain number of information, such as word size, rank of the word in the text, paragraph number where the word was found, etc. Each word associates a node in the XML file. Each node contains the following positional features of the word in the text: - Paragraph number in the text, i.e. paragraph where the word can be found, - Sentence number in the paragraph, - Sentence number in the text, - Rank of the word in the text, - Rank of the first character of the word in the text, - Word size. Information about word annotation are added as « sub-nodes »: - Word of non vowelised text, - Vowelised word, - Word lemma, - Grammatical category of the word.",
  "creationDate": 1708706061682,
  "languages": [2],
  "categories": [2],
  "type": "service",
  "contracts": [1],
  "user": 1,
  "contents": [
    {
      "id": 1,
      "extension": "pdf",
      "name": "File test"
    }
  ]
},
{
  "name": "Service 6",
   "description": "Lorem ipsum dolor sit amet, consectetur adipiscing elit. Suspendisse posuere ipsum odio, sed maximus dui lobortis sit amet.",
  "textContent": "To each text are associated 3 files : - raw text in Arabic, - vowelized text in Arabic, - one XML file containing the morphological annotation of the text. Each text word associates a certain number of information, such as word size, rank of the word in the text, paragraph number where the word was found, etc. Each word associates a node in the XML file. Each node contains the following positional features of the word in the text: - Paragraph number in the text, i.e. paragraph where the word can be found, - Sentence number in the paragraph, - Sentence number in the text, - Rank of the word in the text, - Rank of the first character of the word in the text, - Word size. Information about word annotation are added as « sub-nodes »: - Word of non vowelised text, - Vowelised word, - Word lemma, - Grammatical category of the word.",
  "creationDate": 1708706061682,
  "languages": [2],
  "categories": [1],
  "type": "service",
  "contracts": [1],
  "user": 1,
  "contents": [
    {
      "id": 1,
      "extension": "pdf",
      "name": "File test"
    }
  ]
},
{
  "name": "Service 7",
   "description": "Lorem ipsum dolor sit amet, consectetur adipiscing elit. Suspendisse posuere ipsum odio, sed maximus dui lobortis sit amet.",
  "textContent": "To each text are associated 3 files : - raw text in Arabic, - vowelized text in Arabic, - one XML file containing the morphological annotation of the text. Each text word associates a certain number of information, such as word size, rank of the word in the text, paragraph number where the word was found, etc. Each word associates a node in the XML file. Each node contains the following positional features of the word in the text: - Paragraph number in the text, i.e. paragraph where the word can be found, - Sentence number in the paragraph, - Sentence number in the text, - Rank of the word in the text, - Rank of the first character of the word in the text, - Word size. Information about word annotation are added as « sub-nodes »: - Word of non vowelised text, - Vowelised word, - Word lemma, - Grammatical category of the word.",
  "creationDate": 1708706061682,
  "languages": [2],
  "categories": [1,2],
  "type": "service",
  "contracts": [1],
  "user": 1,
  "contents": [
    {
      "id": 1,
      "extension": "pdf",
      "name": "File test"
    }
  ]
},
{
  "name": "Service 8",
   "description": "Lorem ipsum dolor sit amet, consectetur adipiscing elit. Suspendisse posuere ipsum odio, sed maximus dui lobortis sit amet.",
  "textContent": "To each text are associated 3 files : - raw text in Arabic, - vowelized text in Arabic, - one XML file containing the morphological annotation of the text. Each text word associates a certain number of information, such as word size, rank of the word in the text, paragraph number where the word was found, etc. Each word associates a node in the XML file. Each node contains the following positional features of the word in the text: - Paragraph number in the text, i.e. paragraph where the word can be found, - Sentence number in the paragraph, - Sentence number in the text, - Rank of the word in the text, - Rank of the first character of the word in the text, - Word size. Information about word annotation are added as « sub-nodes »: - Word of non vowelised text, - Vowelised word, - Word lemma, - Grammatical category of the word.",
  "creationDate": 1708706061682,
  "languages": [2],
  "categories": [2],
  "type": "service",
  "contracts": [1],
  "user": 1,
  "contents": [
    {
      "id": 1,
      "extension": "pdf",
      "name": "File test"
    }
  ]
},
{
  "name": "Service 9",
   "description": "Lorem ipsum dolor sit amet, consectetur adipiscing elit. Suspendisse posuere ipsum odio, sed maximus dui lobortis sit amet.",
  "textContent": "To each text are associated 3 files : - raw text in Arabic, - vowelized text in Arabic, - one XML file containing the morphological annotation of the text. Each text word associates a certain number of information, such as word size, rank of the word in the text, paragraph number where the word was found, etc. Each word associates a node in the XML file. Each node contains the following positional features of the word in the text: - Paragraph number in the text, i.e. paragraph where the word can be found, - Sentence number in the paragraph, - Sentence number in the text, - Rank of the word in the text, - Rank of the first character of the word in the text, - Word size. Information about word annotation are added as « sub-nodes »: - Word of non vowelised text, - Vowelised word, - Word lemma, - Grammatical category of the word.",
  "creationDate": 1708706061682,
  "languages": [1, 2],
  "categories": [1],
  "type": "service",
  "contracts": [1],
  "user": 1,
  "contents": [
    {
      "id": 1,
      "extension": "pdf",
      "name": "File test"
    }
  ]
},
{
  "name": "Service 10",
   "description": "Lorem ipsum dolor sit amet, consectetur adipiscing elit. Suspendisse posuere ipsum odio, sed maximus dui lobortis sit amet.",
  "textContent": "To each text are associated 3 files : - raw text in Arabic, - vowelized text in Arabic, - one XML file containing the morphological annotation of the text. Each text word associates a certain number of information, such as word size, rank of the word in the text, paragraph number where the word was found, etc. Each word associates a node in the XML file. Each node contains the following positional features of the word in the text: - Paragraph number in the text, i.e. paragraph where the word can be found, - Sentence number in the paragraph, - Sentence number in the text, - Rank of the word in the text, - Rank of the first character of the word in the text, - Word size. Information about word annotation are added as « sub-nodes »: - Word of non vowelised text, - Vowelised word, - Word lemma, - Grammatical category of the word.",
  "creationDate": 1708706061682,
  "languages": [2],
  "categories": [1,2],
  "type": "service",
  "contracts": [1],
  "user": 1,
  "contents": [
    {
      "id": 1,
      "extension": "pdf",
      "name": "File test"
    }
  ]
},
{
  "name": "Service 11",
   "description": "Lorem ipsum dolor sit amet, consectetur adipiscing elit. Suspendisse posuere ipsum odio, sed maximus dui lobortis sit amet.",
  "textContent": "To each text are associated 3 files : - raw text in Arabic, - vowelized text in Arabic, - one XML file containing the morphological annotation of the text. Each text word associates a certain number of information, such as word size, rank of the word in the text, paragraph number where the word was found, etc. Each word associates a node in the XML file. Each node contains the following positional features of the word in the text: - Paragraph number in the text, i.e. paragraph where the word can be found, - Sentence number in the paragraph, - Sentence number in the text, - Rank of the word in the text, - Rank of the first character of the word in the text, - Word size. Information about word annotation are added as « sub-nodes »: - Word of non vowelised text, - Vowelised word, - Word lemma, - Grammatical category of the word.",
  "creationDate": 1708706061682,
  "languages": [1],
  "categories": [1,2],
  "type": "service",
  "contracts": [1],
  "user": 1,
  "contents": [
    {
      "id": 1,
      "extension": "pdf",
      "name": "File test"
    }
  ]
},
{
  "name": "Service 12",
   "description": "Lorem ipsum dolor sit amet, consectetur adipiscing elit. Suspendisse posuere ipsum odio, sed maximus dui lobortis sit amet.",
  "textContent": "To each text are associated 3 files : - raw text in Arabic, - vowelized text in Arabic, - one XML file containing the morphological annotation of the text. Each text word associates a certain number of information, such as word size, rank of the word in the text, paragraph number where the word was found, etc. Each word associates a node in the XML file. Each node contains the following positional features of the word in the text: - Paragraph number in the text, i.e. paragraph where the word can be found, - Sentence number in the paragraph, - Sentence number in the text, - Rank of the word in the text, - Rank of the first character of the word in the text, - Word size. Information about word annotation are added as « sub-nodes »: - Word of non vowelised text, - Vowelised word, - Word lemma, - Grammatical category of the word.",
  "creationDate": 1708706061682,
  "languages": [1, 2],
  "categories": [1,2],
  "type": "service",
  "contracts": [1],
  "user": 1,
  "contents": [
    {
      "id": 1,
      "extension": "pdf",
      "name": "File test"
    }
  ]
},
{
  "name": "Service 13",
   "description": "Lorem ipsum dolor sit amet, consectetur adipiscing elit. Suspendisse posuere ipsum odio, sed maximus dui lobortis sit amet.",
  "textContent": "To each text are associated 3 files : - raw text in Arabic, - vowelized text in Arabic, - one XML file containing the morphological annotation of the text. Each text word associates a certain number of information, such as word size, rank of the word in the text, paragraph number where the word was found, etc. Each word associates a node in the XML file. Each node contains the following positional features of the word in the text: - Paragraph number in the text, i.e. paragraph where the word can be found, - Sentence number in the paragraph, - Sentence number in the text, - Rank of the word in the text, - Rank of the first character of the word in the text, - Word size. Information about word annotation are added as « sub-nodes »: - Word of non vowelised text, - Vowelised word, - Word lemma, - Grammatical category of the word.",
  "creationDate": 1708706061682,
  "languages": [1, 2],
  "categories": [1,2],
  "type": "service",
  "contracts": [2],
  "user": 2,
  "contents": [
    {
      "id": 1,
      "extension": "pdf",
      "name": "File test"
    }
  ]
}
],"pageable":{"sort":{"empty":false,"unsorted":false,"sorted":true},"offset":0,"pageSize":12,"pageNumber":0,"unpaged":false,"paged":true},"last":false,"totalElements":24,"totalPages":2,"size":12,"number":0,"sort":{"empty":false,"unsorted":false,"sorted":true},"first":true,"numberOfElements":12,"empty":false}
